___lwdiv@dividend 8 0 COMRAM 1
UART_Transmit@size E 0 COMRAM 1
__pbssBIGRAM_1 400 0 BIGRAM 1
___aodiv@counter 18 0 COMRAM 1
__CFG_XINST$OFF 0 0 ABS 0
___lldiv@counter 14 0 COMRAM 1
_tskBlockedQueue DE 0 BANK0 1
___lodiv@counter 20 0 COMRAM 1
__size_of_vListInitialiseItem 0 0 ABS 0
___lwdiv@counter E 0 COMRAM 1
__size_of_vListInitialise 0 0 ABS 0
___temp_wreg C3 0 BANK0 1
_Scheduler_start 27BA 0 CODE 0
__S0 30000E 0 ABS 0
__S1 800 0 ABS 0
__S2 0 0 ABS 0
__end_of_USensor_read 3514 0 CODE 0
__Hintentry 0 0 ABS 0
__CFG_PWRT$OFF 0 0 ABS 0
__Lintentry 0 0 ABS 0
__size_of_UART_Transmit 0 0 ABS 0
__end_of_USensor_init 3234 0 CODE 0
_pad 2E08 0 CODE 0
vsnprintf@f 99 0 BANK0 1
_iRx CF 0 BANK0 1
_msg 140 0 BANK1 1
_abs 35EE 0 CODE 0
_iTx D1 0 BANK0 1
_pRx D3 0 BANK0 1
_pTx D5 0 BANK0 1
__CFG_PLLDIV$5 0 0 ABS 0
_TMR1 FCE 0 ABS 0
_TMR3 FB2 0 ABS 0
strncmp@l F 0 COMRAM 1
vfpfcnvrt@c 78 0 BANK0 1
uxListRemove@pxItemToRemove 8 0 COMRAM 1
__size_of_low_isr 0 0 ABS 0
__end_of___lomod 2CBE 0 CODE 0
_LATB F8A 0 ABS 0
_LATC F8B 0 ABS 0
_HEAP 400 0 BIGRAM 1
strncmp@n C 0 COMRAM 1
abs@a 1A 0 COMRAM 1
pad@i 1F 0 COMRAM 1
pad@p 1C 0 COMRAM 1
?_pad 18 0 COMRAM 1
_Scheduler_createTask 26AC 0 CODE 0
pad@w 21 0 COMRAM 1
_prec 50 0 COMRAM 1
_ctoa 3382 0 CODE 0
_dtoa 15B8 0 CODE 0
_otoa 1F42 0 CODE 0
_stoa 2348 0 CODE 0
_utoa 1C08 0 CODE 0
_xtoa 17FA 0 CODE 0
_dbuf 120 0 BANK1 1
?_abs 1A 0 COMRAM 1
_main 2E9E 0 CODE 0
_atoi 2208 0 CODE 0
___sp 0 0 STACK 2
btemp 57 0 COMRAM 1
start 3A 0 CODE 0
_nout B1 0 BANK0 1
strncmp@r 11 0 COMRAM 1
vListInitialiseItem@pxItem 8 0 COMRAM 1
__size_of_Timer3_capture 0 0 ABS 0
_xtoa$1710 36 0 COMRAM 1
__end_of_vTaskEXEC_TASK 377E 0 CODE 0
?_isspace 8 0 COMRAM 1
?_isalpha 8 0 COMRAM 1
_TMR3H FB3 0 ABS 0
_TMR3L FB2 0 ABS 0
_USensor_init 31D2 0 CODE 0
_RCREG FAE 0 ABS 0
_xtoa$1711 38 0 COMRAM 1
_RCSTA FAB 0 ABS 0
_TRISB F93 0 ABS 0
__size_of_vTaskEXEC_TASK 0 0 ABS 0
_TRISC F94 0 ABS 0
_TXREG FAD 0 ABS 0
_PORTB F81 0 ABS 0
_SPBRG FAF 0 ABS 0
__Hirdata 0 0 CODE 0
_TXSTA FAC 0 ABS 0
__Lirdata 0 0 CODE 0
_PORTC F82 0 ABS 0
__HRAM 0 0 ABS 0
__LRAM 1 0 ABS 0
_T1CON FCD 0 ABS 0
_T3CON FB1 0 ABS 0
_Task0 3024 0 CODE 0
snprintf@n A1 0 BANK0 1
_CMCON FB4 0 ABS 0
_Task1 380A 0 CODE 0
__size_of_vfprintf 0 0 ABS 0
ttemp5 58 0 COMRAM 1
ttemp6 5B 0 COMRAM 1
ttemp7 5F 0 COMRAM 1
wtemp8 58 0 COMRAM 1
__CFG_WDTPS$32768 0 0 ABS 0
__Hconfig 30000E 0 CONFIG 0
__Lconfig 300000 0 CONFIG 0
uxListInsertEnd@pxList 8 0 COMRAM 1
__size_of_USensor_ISR 0 0 ABS 0
?___aomod 8 0 COMRAM 1
ctoa@c 25 0 COMRAM 1
xtoa@c 48 0 COMRAM 1
dtoa@d 25 0 COMRAM 1
stoa@F1152 F4 0 BANK0 1
otoa@d 25 0 COMRAM 1
utoa@d 25 0 COMRAM 1
xtoa@d 25 0 COMRAM 1
?___lomod 8 0 COMRAM 1
dtoa@i 45 0 COMRAM 1
otoa@i 43 0 COMRAM 1
stoa@i 1D 0 COMRAM 1
utoa@i 41 0 COMRAM 1
xtoa@i 46 0 COMRAM 1
stoa@l 25 0 COMRAM 1
dtoa@n 3D 0 COMRAM 1
otoa@n 3B 0 COMRAM 1
utoa@n 39 0 COMRAM 1
xtoa@n 3E 0 COMRAM 1
atoi@n 1C 0 COMRAM 1
dtoa@p 37 0 COMRAM 1
otoa@p 35 0 COMRAM 1
stoa@p 23 0 COMRAM 1
utoa@p 35 0 COMRAM 1
xtoa@p 3A 0 COMRAM 1
dtoa@s 3B 0 COMRAM 1
stoa@s 13 0 COMRAM 1
otoa@t 37 0 COMRAM 1
_tskDoneQueue D8 0 BANK0 1
atoi@s F 0 COMRAM 1
__Hbigram 0 0 ABS 0
__Lbigram 0 0 ABS 0
__Hrparam 0 0 COMRAM 1
ctoa@w 26 0 COMRAM 1
dtoa@w 39 0 COMRAM 1
__Lrparam 0 0 COMRAM 1
otoa@w 39 0 COMRAM 1
stoa@w 1F 0 COMRAM 1
utoa@w 37 0 COMRAM 1
xtoa@w 3C 0 COMRAM 1
pad@fp 18 0 COMRAM 1
xtoa@x 2D 0 COMRAM 1
?_ctoa 23 0 COMRAM 1
?_dtoa 23 0 COMRAM 1
strncmp@_l 8 0 COMRAM 1
?_otoa 23 0 COMRAM 1
?_stoa 11 0 COMRAM 1
__Hram 0 0 ABS 0
?_utoa 23 0 COMRAM 1
?_xtoa 23 0 COMRAM 1
__Lram 0 0 ABS 0
__Hcomram 0 0 ABS 0
_putch 3870 0 CODE 0
__Lcomram 0 0 ABS 0
?_atoi F 0 COMRAM 1
_fputc 2D68 0 CODE 0
_width 4E 0 COMRAM 1
__end_of_Timer3_init 3836 0 CODE 0
__Hsfr 0 0 ABS 0
__end_of_Timer3_stop 3862 0 CODE 0
__Lsfr 0 0 ABS 0
__size_of_islower 0 0 ABS 0
_flags 52 0 COMRAM 1
__Hbss 0 0 RAM 1
__CFG_STVREN$ON 0 0 ABS 0
__Lbss 0 0 RAM 1
___param_bank 0 0 ABS 0
__Hnvrram 0 0 COMRAM 1
_errno AF 0 BANK0 1
__Lnvrram 0 0 COMRAM 1
Scheduler_createTask@temp 16 0 COMRAM 1
_Timer1_enable 37F0 0 CODE 0
_vfprintf 3234 0 CODE 0
_Timer3_enable 37BA 0 CODE 0
_snprintf 3620 0 CODE 0
_fputs 354E 0 CODE 0
__size_of_vTaskSwitchContext 0 0 ABS 0
Task0@data F0 0 BANK0 1
int$flags 57 0 COMRAM 1
snprintf@s 9F 0 BANK0 1
__size_of_Timer1_ISR 0 0 ABS 0
_SchedulerState FB 0 BANK0 1
__end_of_abs 3620 0 CODE 0
uxListInsertEnd@pxNewListItem A 0 COMRAM 1
_ADCON1 FC1 0 ABS 0
__size_of_UART_ISR 0 0 ABS 0
_dtoa$1675 35 0 COMRAM 1
__end_of_vfpfcnvrt 15B8 0 CODE 0
__end_of_putch 3872 0 CODE 0
_vListInitialise 341A 0 CODE 0
?_strncmp 8 0 COMRAM 1
__end_of_vListInitialiseItem 32E0 0 CODE 0
_PIE1bits F9D 0 ABS 0
_PIE2bits FA0 0 ABS 0
__Heeprom_data 0 0 EEDATA 0
__Leeprom_data 0 0 EEDATA 0
_PIR1bits F9E 0 ABS 0
_IPR1bits F9F 0 ABS 0
_PIR2bits FA1 0 ABS 0
_IPR2bits FA2 0 ABS 0
__end_of_Timer3_start 386C 0 CODE 0
?_isdigit 8 0 COMRAM 1
?_isupper 8 0 COMRAM 1
?_toupper E 0 COMRAM 1
__Hintsave_regs 0 0 BIGRAM 1
__Lintsave_regs 0 0 BIGRAM 1
?___aodiv 8 0 COMRAM 1
_RCONbits FD0 0 ABS 0
_atoi$2287 17 0 COMRAM 1
?_islower 8 0 COMRAM 1
?___lldiv 8 0 COMRAM 1
?___lodiv 8 0 COMRAM 1
__Hbigbss 0 0 BIGRAM 1
__Lbigbss 0 0 BIGRAM 1
__Hintret 0 0 ABS 0
_tskWaitingQueue E4 0 BANK0 1
__Lintret 0 0 ABS 0
__Hramtop 800 0 RAM 0
Scheduler_createTask@taskFxn 12 0 COMRAM 1
__size_of_UART_init 0 0 ABS 0
__Lramtop 800 0 RAM 0
__Hstruct 0 0 COMRAM 1
stoa@nuls 16 0 COMRAM 1
__Lstruct 0 0 COMRAM 1
_high_isr 8 0 CODE 0
__Hbigdata 0 0 BIGRAM 1
__Lbigdata 0 0 BIGRAM 1
__Hmediumconst 0 0 MEDIUMCONST 0
__end_of_strlen 370A 0 CODE 0
__Lmediumconst 0 0 MEDIUMCONST 0
_SPBRGH FB0 0 ABS 0
?___lwdiv 8 0 COMRAM 1
_Scheduler_suspend 3332 0 CODE 0
__Hfarbss 0 0 FARRAM 0
__size_of_USensor_read 0 0 ABS 0
__Lfarbss 0 0 FARRAM 0
_atoi$2288 1B 0 COMRAM 1
__Hintcode E 0 CODE 0
__Lintcode 8 0 CODE 0
__Hfardata 0 0 FARRAM 0
__Lfardata 0 0 FARRAM 0
i1_Timer1_reload 384A 0 CODE 0
strncmp@_r A 0 COMRAM 1
__size_of_Timer1_init 0 0 ABS 0
__pintcode 8 0 CODE 0
_T1FREQ 801 0 SMALLCONST 0
__Habs1 0 0 ABS 0
__Labs1 0 0 ABS 0
vsnprintf@n 8B 0 BANK0 1
_USensor_ISR 381A 0 CODE 0
_vListInitialiseItem 328A 0 CODE 0
__CFG_EBTR0$OFF 0 0 ABS 0
_atoi$2289 19 0 COMRAM 1
__size_of_USensor_init 0 0 ABS 0
__size_of_USensor_measure 0 0 ABS 0
__size_of_fputc 0 0 ABS 0
__HnvFARRAM 0 0 FARRAM 0
__LnvFARRAM 0 0 FARRAM 0
__CFG_EBTR1$OFF 0 0 ABS 0
__end_of_Scheduler_suspend 3382 0 CODE 0
__CFG_PBADEN$OFF 0 0 ABS 0
__end_of_Timer3_reload 3840 0 CODE 0
__end_of_Timer3_enable 37D6 0 CODE 0
fputc@c 8 0 COMRAM 1
_vfpfcnvrt$1726 6C 0 BANK0 1
__end_of_Scheduler_createTask 27BA 0 CODE 0
__CFG_EBTR2$OFF 0 0 ABS 0
USensor_measure@tempTime CB 0 BANK0 1
fputs@c 15 0 COMRAM 1
fputs@i 16 0 COMRAM 1
__size_of_Task1 0 0 ABS 0
__end_of_UART_init 3732 0 CODE 0
vfpfcnvrt@vp 76 0 BANK0 1
__Hdata 0 0 ABS 0
__Ldata 0 0 ABS 0
stoa@cp 21 0 COMRAM 1
__CFG_EBTR3$OFF 0 0 ABS 0
fputs@s 11 0 COMRAM 1
ctoa@fp 23 0 COMRAM 1
dtoa@fp 23 0 COMRAM 1
otoa@fp 23 0 COMRAM 1
stoa@fp 11 0 COMRAM 1
utoa@fp 23 0 COMRAM 1
xtoa@fp 23 0 COMRAM 1
pad@buf 1A 0 COMRAM 1
_malloc 2FA8 0 CODE 0
_USensor_read 34DA 0 CODE 0
stackhi 3F3 0 ABS 0
__size_of_Timer1_start 0 0 ABS 0
__HcstackBANK0 0 0 ABS 0
__LcstackBANK0 0 0 ABS 0
__size_of___lodiv 0 0 ABS 0
__CFG_CPUDIV$OSC1_PLL2 0 0 ABS 0
___aomod@sign 19 0 COMRAM 1
__end_of_Scheduler_wait 316C 0 CODE 0
__pcstackBANK0 60 0 BANK0 1
__end_of_Scheduler_init 349C 0 CODE 0
_strlen 36E0 0 CODE 0
__Htemp 58 0 COMRAM 1
__Ltemp 57 0 COMRAM 1
stacklo 14F 0 ABS 0
__Hrbit 0 0 COMRAM 1
__Lrbit 0 0 COMRAM 1
__CFG_BOR$ON 0 0 ABS 0
_UART_open 1DB6 0 CODE 0
_Timer1_start 386C 0 CODE 0
__Hinit 3E 0 CODE 0
__Linit 3A 0 CODE 0
__Hintcodelo 3A 0 CODE 0
__Lintcodelo 18 0 CODE 0
___wmul 3732 0 CODE 0
_Timer3_start 3868 0 CODE 0
__end_of_Scheduler_sort 3874 0 CODE 0
__Hrbss 0 0 COMRAM 1
__end_of_main 2F26 0 CODE 0
__Lrbss 0 0 COMRAM 1
__pintcodelo 18 0 CODE 0
__Htext 0 0 ABS 0
__Ltext 0 0 ABS 0
__CFG_CCP2MX$ON 0 0 ABS 0
?_vfprintf 81 0 BANK0 1
?_snprintf 9F 0 BANK0 1
_status 56 0 COMRAM 1
_vsnprintf 29B4 0 CODE 0
___wmul@multiplier 8 0 COMRAM 1
__HdataBANK0 0 0 ABS 0
__LdataBANK0 0 0 ABS 0
vsnprintf@s 89 0 BANK0 1
__pdataBANK0 F4 0 BANK0 1
__size_of_pad 0 0 ABS 0
end_of_initialization 31C4 0 CODE 0
___aodiv@sign 19 0 COMRAM 1
__size_of_UART_open 0 0 ABS 0
__CFG_USBDIV$1 0 0 ABS 0
__size_of_abs 0 0 ABS 0
_Scheduler_init 345C 0 CODE 0
___wmul@multiplicand A 0 COMRAM 1
__size_of_isalpha 0 0 ABS 0
__size_of___aodiv 0 0 ABS 0
_USensor_measure 2594 0 CODE 0
__CFG_VREGEN$OFF 0 0 ABS 0
_toupper$2394 14 0 COMRAM 1
_tskReadyQueue EA 0 BANK0 1
__end_of___aodiv 2208 0 CODE 0
vfprintf@fmt 83 0 BANK0 1
snprintf@fmt A3 0 BANK0 1
__end_of_fputs 3586 0 CODE 0
__size_of_putch 0 0 ABS 0
_UART_init 370A 0 CODE 0
__end_of_uxListRemove 1C08 0 CODE 0
__size_of_strncmp 0 0 ABS 0
vfprintf@ap 85 0 BANK0 1
snprintf@ap A9 0 BANK0 1
_RCSTAbits FAB 0 ABS 0
_PORTBbits F81 0 ABS 0
_TXSTAbits FAC 0 ABS 0
UART_open@baud 15 0 COMRAM 1
_T3CONbits FB1 0 ABS 0
_uxListRemove 1A26 0 CODE 0
_UART_Transmit 35BA 0 CODE 0
__size_of_snprintf 0 0 ABS 0
__end_of_high_isr 37BA 0 CODE 0
_Scheduler_sort 3872 0 CODE 0
__end_of_Timer3_capture 37F0 0 CODE 0
__Hibigdata 0 0 CODE 0
__Libigdata 0 0 CODE 0
__size_of_strlen 0 0 ABS 0
__end_of_malloc 3024 0 CODE 0
__size_of_Timer1_reload 0 0 ABS 0
__size_of_Timer1_enable 0 0 ABS 0
__end_of_atoi 2348 0 CODE 0
__Hifardata 0 0 CODE 0
__Lifardata 0 0 CODE 0
__Hbank0 0 0 ABS 0
__Lbank0 0 0 ABS 0
_BAUDCON FB8 0 ABS 0
__Hbank1 0 0 ABS 0
__Lbank1 0 0 ABS 0
Scheduler_check@pNode C1 0 BANK0 1
__Hbank2 0 0 ABS 0
__Lbank2 0 0 ABS 0
Scheduler_check@delta B9 0 BANK0 1
__Hbank3 0 0 ABS 0
__Lbank3 0 0 ABS 0
__Hbank4 0 0 ABS 0
USensor_read@buf 8 0 COMRAM 1
__Lbank4 0 0 ABS 0
__Hbank5 0 0 ABS 0
__Lbank5 0 0 ABS 0
vfprintf@fp 81 0 BANK0 1
__Hpowerup 3A 0 CODE 0
__Lpowerup 3A 0 CODE 0
__Hbank6 0 0 ABS 0
__Lbank6 0 0 ABS 0
__Hbank7 0 0 ABS 0
__Lbank7 0 0 ABS 0
__end_of_Timer1_ISR 379C 0 CODE 0
__Htext0 0 0 ABS 0
__Ltext0 0 0 ABS 0
__Htext1 0 0 ABS 0
__Ltext1 0 0 ABS 0
__ptext0 2E9E 0 CODE 0
__Htext2 0 0 ABS 0
UART_Transmit@buffer C 0 COMRAM 1
__Ltext2 0 0 ABS 0
__ptext1 31D2 0 CODE 0
__Htext3 0 0 ABS 0
__Ltext3 0 0 ABS 0
__ptext2 382A 0 CODE 0
__Htext4 0 0 ABS 0
__Ltext4 0 0 ABS 0
__ptext3 1DB6 0 CODE 0
__Htext5 0 0 ABS 0
__Ltext5 0 0 ABS 0
__ptext4 2F26 0 CODE 0
__Htext6 0 0 ABS 0
__Ltext6 0 0 ABS 0
__ptext5 370A 0 CODE 0
__Htext7 0 0 ABS 0
__Ltext7 0 0 ABS 0
__ptext6 380A 0 CODE 0
__HbssCOMRAM 0 0 ABS 0
__LbssCOMRAM 0 0 ABS 0
__Htext8 0 0 ABS 0
__Ltext8 0 0 ABS 0
_tskSysTick C9 0 BANK0 1
__ptext7 3332 0 CODE 0
__pbssCOMRAM 4E 0 COMRAM 1
__end_of_Timer1_init 3868 0 CODE 0
__Htext9 0 0 ABS 0
__end_of_Task0 3092 0 CODE 0
__Ltext9 0 0 ABS 0
__ptext8 3024 0 CODE 0
_Timer1_init 3862 0 CODE 0
__ptext9 3620 0 CODE 0
_Timer3_init 382A 0 CODE 0
_vfpfcnvrt 83E 0 CODE 0
UART_open@buffer 1B 0 COMRAM 1
__Hclrtext 0 0 ABS 0
__Lclrtext 0 0 ABS 0
__end_of_isspace 34DA 0 CODE 0
__size_of_ctoa 0 0 ABS 0
Scheduler_check@actual BB 0 BANK0 1
strlen@a A 0 COMRAM 1
__end_of_Timer1_start 3870 0 CODE 0
__end_of__initialization 31C4 0 CODE 0
__end_of_islower 3680 0 CODE 0
_vTaskSwitchContext 3514 0 CODE 0
__size_of_Scheduler_check 0 0 ABS 0
_BAUDCONbits FB8 0 ABS 0
___rparam_used 1 0 ABS 0
__size_of_dtoa 0 0 ABS 0
__end_of___lwdiv 3332 0 CODE 0
__size_of___lomod 0 0 ABS 0
Scheduler_suspend@taskH E 0 COMRAM 1
_Timer1_ISR 377E 0 CODE 0
?_Scheduler_createTask 12 0 COMRAM 1
__end_of_USensor_measure 26AC 0 CODE 0
_Timer3_stop 385C 0 CODE 0
strlen@s 8 0 COMRAM 1
atoi@neg 15 0 COMRAM 1
_isspace 349C 0 CODE 0
_isalpha 3586 0 CODE 0
__Hidata 0 0 CODE 0
__Lidata 0 0 CODE 0
_tskRunning 54 0 COMRAM 1
_USensorMEASFlag D7 0 BANK0 1
__end_of_Scheduler_check 2C10 0 CODE 0
__Hrdata 0 0 COMRAM 1
__Lrdata 0 0 COMRAM 1
fputc@fp A 0 COMRAM 1
__Hidloc 200008 0 IDLOC 0
__Lidloc 200000 0 IDLOC 0
malloc@pvTemp 10 0 COMRAM 1
__end_of_Timer1_reload 384A 0 CODE 0
__end_of_Timer1_enable 380A 0 CODE 0
?_malloc 8 0 COMRAM 1
fputs@fp 13 0 COMRAM 1
__Hstack 0 0 STACK 2
__Lstack 0 0 STACK 2
__size_of_high_isr 0 0 ABS 0
___aomod 2470 0 CODE 0
int_func 379C 0 CODE 0
__end_of___lldiv 2FA8 0 CODE 0
___lomod 2C10 0 CODE 0
__size_of___aomod 0 0 ABS 0
__Hparam 0 0 COMRAM 1
__Lparam 0 0 COMRAM 1
__Hspace_0 30000E 0 ABS 0
__HcstackCOMRAM 0 0 ABS 0
__Lspace_0 0 0 ABS 0
__LcstackCOMRAM 0 0 ABS 0
__pcstackCOMRAM 1 0 COMRAM 1
_measure 100 0 BANK1 1
__end_of___aomod 2594 0 CODE 0
__Hspace_1 800 0 ABS 0
__Lspace_1 0 0 ABS 0
?_strlen 8 0 COMRAM 1
__size_of_Timer3_init 0 0 ABS 0
__end_of_vsnprintf 2A88 0 CODE 0
__size_of_Timer3_stop 0 0 ABS 0
__Hsmallconst 83E 0 SMALLCONST 0
malloc@size 8 0 COMRAM 1
__Lsmallconst 800 0 SMALLCONST 0
__psmallconst 800 0 SMALLCONST 0
_strncmp 2CBE 0 CODE 0
__Hspace_2 0 0 ABS 0
__Lspace_2 0 0 ABS 0
__Hnvbit 0 0 COMRAM 1
__Lnvbit 0 0 COMRAM 1
?___wmul 8 0 COMRAM 1
_isdigit 36B0 0 CODE 0
_isupper 3680 0 CODE 0
__Hcinit 0 0 ABS 0
_toupper 33D0 0 CODE 0
__Lcinit 0 0 ABS 0
___aodiv 20C0 0 CODE 0
_Task0Handler B5 0 BANK0 1
_islower 3650 0 CODE 0
___lldiv 2F26 0 CODE 0
__pcinit 316C 0 CODE 0
__CFG_EBTRB$OFF 0 0 ABS 0
_Task1Handler B3 0 BANK0 1
___lodiv 2A88 0 CODE 0
__end_of_Scheduler_start 28BA 0 CODE 0
__size_of_Scheduler_start 0 0 ABS 0
__ramtop 800 0 RAM 0
__mediumconst 0 0 MEDIUMCONST 0
___lwdiv 32E0 0 CODE 0
_low_isr 18 0 CODE 0
__size_of_main 0 0 ABS 0
__end_of_fputc 2E08 0 CODE 0
__Hconst 0 0 CONST 0
__Lconst 0 0 CONST 0
?_vsnprintf 89 0 BANK0 1
__end_of_Task1 381A 0 CODE 0
__HidataBANK0 0 0 ABS 0
__LidataBANK0 0 0 ABS 0
__pidataBANK0 3854 0 CODE 0
_Scheduler_check 2B56 0 CODE 0
__end_of_isdigit 36E0 0 CODE 0
__end_of_uxListInsertEnd 29B4 0 CODE 0
__CFG_WRT0$OFF 0 0 ABS 0
__end_of_pad 2E9E 0 CODE 0
__size_of_Timer3_start 0 0 ABS 0
__CFG_WRT1$OFF 0 0 ABS 0
__size_of___lwdiv 0 0 ABS 0
__HbssBANK0 0 0 ABS 0
__LbssBANK0 0 0 ABS 0
__CFG_WRT2$OFF 0 0 ABS 0
__pbssBANK0 AB 0 BANK0 1
vfpfcnvrt@done 68 0 BANK0 1
__size_of_isdigit 0 0 ABS 0
vsnprintf@cnt 97 0 BANK0 1
__end_of_vListInitialise 345C 0 CODE 0
__CFG_WRT3$OFF 0 0 ABS 0
__CFG_FCMEN$OFF 0 0 ABS 0
__end_of_UART_ISR 3100 0 CODE 0
__size_of_isupper 0 0 ABS 0
__HbssBANK1 0 0 ABS 0
__LbssBANK1 0 0 ABS 0
__pbssBANK1 100 0 BANK1 1
__Htext10 0 0 ABS 0
__Ltext10 0 0 ABS 0
Timer1_enable@priority 9 0 COMRAM 1
Scheduler_check@pNode_temp BF 0 BANK0 1
Timer3_enable@priority 9 0 COMRAM 1
__Htext20 0 0 ABS 0
__Ltext20 0 0 ABS 0
__ptext10 29B4 0 CODE 0
vsnprintf@fmt 8D 0 BANK0 1
__Htext30 0 0 ABS 0
__Htext11 0 0 ABS 0
__Ltext30 0 0 ABS 0
__Ltext11 0 0 ABS 0
__ptext20 2A88 0 CODE 0
i1Timer1_reload@value 3 0 COMRAM 1
__Htext40 0 0 ABS 0
__Htext21 0 0 ABS 0
__Ltext40 0 0 ABS 0
__Ltext21 0 0 ABS 0
__ptext11 3234 0 CODE 0
__ptext30 36E0 0 CODE 0
?_Timer3_capture 8 0 COMRAM 1
__Htext50 0 0 ABS 0
__Htext31 0 0 ABS 0
__Htext12 0 0 ABS 0
__Ltext50 0 0 ABS 0
__Ltext31 0 0 ABS 0
__Ltext12 0 0 ABS 0
__ptext21 2CBE 0 CODE 0
__ptext40 32E0 0 CODE 0
__Htext60 0 0 ABS 0
__Htext41 0 0 ABS 0
__Htext22 0 0 ABS 0
__Ltext60 0 0 ABS 0
__Ltext41 0 0 ABS 0
__Ltext22 0 0 ABS 0
__ptext12 83E 0 CODE 0
__ptext31 354E 0 CODE 0
__ptext50 3758 0 CODE 0
__Htext70 0 0 ABS 0
__Htext51 0 0 ABS 0
__Htext32 0 0 ABS 0
__Htext13 0 0 ABS 0
__Ltext70 0 0 ABS 0
__Ltext51 0 0 ABS 0
__Ltext32 0 0 ABS 0
__Ltext13 0 0 ABS 0
__ptext22 2348 0 CODE 0
__ptext41 385C 0 CODE 0
__ptext60 26AC 0 CODE 0
__end_of_UART_open 1F42 0 CODE 0
__Htext61 0 0 ABS 0
__Htext42 0 0 ABS 0
__Htext23 0 0 ABS 0
__Ltext61 0 0 ABS 0
__Ltext42 0 0 ABS 0
__Ltext23 0 0 ABS 0
__ptext13 17FA 0 CODE 0
__ptext32 2D68 0 CODE 0
__ptext51 386C 0 CODE 0
__ptext70 0 0 CODE 0
__Htext52 0 0 ABS 0
__Htext33 0 0 ABS 0
__Htext14 0 0 ABS 0
__Ltext52 0 0 ABS 0
__Ltext33 0 0 ABS 0
__Ltext14 0 0 ABS 0
__ptext23 1F42 0 CODE 0
__ptext42 3868 0 CODE 0
__ptext61 328A 0 CODE 0
__Htext62 0 0 ABS 0
__Htext43 0 0 ABS 0
__Htext24 0 0 ABS 0
__Ltext62 0 0 ABS 0
__Ltext43 0 0 ABS 0
__Ltext24 0 0 ABS 0
__ptext14 33D0 0 CODE 0
__ptext33 3870 0 CODE 0
__ptext52 3840 0 CODE 0
__Htext53 0 0 ABS 0
__Htext34 0 0 ABS 0
__Htext15 0 0 ABS 0
__size_of_fputs 0 0 ABS 0
__Ltext53 0 0 ABS 0
__Ltext34 0 0 ABS 0
__Ltext15 0 0 ABS 0
__ptext24 15B8 0 CODE 0
__ptext43 3836 0 CODE 0
__ptext62 28BA 0 CODE 0
__Htext63 0 0 ABS 0
__Htext44 0 0 ABS 0
__Htext25 0 0 ABS 0
__Ltext63 0 0 ABS 0
__Ltext44 0 0 ABS 0
__Ltext25 0 0 ABS 0
__ptext15 3650 0 CODE 0
__ptext34 2208 0 CODE 0
__ptext53 37F0 0 CODE 0
___inthi_sp 0 0 STACK 2
__Htext54 0 0 ABS 0
__Htext35 0 0 ABS 0
__Htext16 0 0 ABS 0
__Ltext54 0 0 ABS 0
__Ltext35 0 0 ABS 0
__Ltext16 0 0 ABS 0
Scheduler_wait@actual C7 0 BANK0 1
__ptext25 35EE 0 CODE 0
__ptext44 37BA 0 CODE 0
__ptext63 2FA8 0 CODE 0
UART_open@priority 19 0 COMRAM 1
__Htext45 0 0 ABS 0
__Htext26 0 0 ABS 0
__Ltext45 0 0 ABS 0
__Ltext26 0 0 ABS 0
__ptext16 3680 0 CODE 0
__ptext35 349C 0 CODE 0
__ptext54 3872 0 CODE 0
__Htext55 0 0 ABS 0
__Htext36 0 0 ABS 0
__Htext17 0 0 ABS 0
__Ltext55 0 0 ABS 0
__Ltext36 0 0 ABS 0
__Ltext17 0 0 ABS 0
__ptext26 2470 0 CODE 0
__ptext45 37D6 0 CODE 0
___aomod@divisor 10 0 COMRAM 1
USensor_measure@mode 11 0 COMRAM 1
__Htext65 0 0 ABS 0
__Htext46 0 0 ABS 0
__Htext27 0 0 ABS 0
__Ltext65 0 0 ABS 0
__Ltext46 0 0 ABS 0
__Ltext27 0 0 ABS 0
__ptext17 3586 0 CODE 0
__ptext36 36B0 0 CODE 0
__ptext55 2B56 0 CODE 0
__end_of_strncmp 2D68 0 CODE 0
___lomod@divisor 10 0 COMRAM 1
__size_ofi1_Timer1_reload 0 0 ABS 0
__Htext56 0 0 ABS 0
__Htext37 0 0 ABS 0
__Htext18 0 0 ABS 0
__Ltext56 0 0 ABS 0
__Ltext37 0 0 ABS 0
__Ltext18 0 0 ABS 0
__ptext27 20C0 0 CODE 0
__ptext46 35BA 0 CODE 0
__ptext65 377E 0 CODE 0
__end_of_ctoa 33D0 0 CODE 0
__Htext66 0 0 ABS 0
__Htext47 0 0 ABS 0
__Htext28 0 0 ABS 0
__Ltext66 0 0 ABS 0
__Ltext47 0 0 ABS 0
__Ltext28 0 0 ABS 0
__ptext18 1C08 0 CODE 0
__ptext37 3732 0 CODE 0
__ptext56 1A26 0 CODE 0
__Htext57 0 0 ABS 0
__Htext38 0 0 ABS 0
__Htext19 0 0 ABS 0
__Ltext57 0 0 ABS 0
__Ltext38 0 0 ABS 0
__Ltext19 0 0 ABS 0
__ptext28 3382 0 CODE 0
__ptext47 3100 0 CODE 0
__ptext66 384A 0 CODE 0
__size_of_otoa 0 0 ABS 0
vsnprintf@ap 8F 0 BANK0 1
Scheduler_wait@time 8 0 COMRAM 1
__Htext48 0 0 ABS 0
__Htext29 0 0 ABS 0
__Ltext48 0 0 ABS 0
__Ltext29 0 0 ABS 0
__ptext19 2C10 0 CODE 0
__ptext38 34DA 0 CODE 0
__ptext57 345C 0 CODE 0
__CFG_BORV$3 0 0 ABS 0
___intlo_sp 0 0 STACK 2
__Htext58 0 0 ABS 0
__Htext39 0 0 ABS 0
__size_of_toupper 0 0 ABS 0
__Ltext58 0 0 ABS 0
__Ltext39 0 0 ABS 0
__ptext29 2E08 0 CODE 0
__ptext48 27BA 0 CODE 0
Timer1_reload@value 8 0 COMRAM 1
__end_of_dtoa 17FA 0 CODE 0
__Htext68 0 0 ABS 0
__Htext49 0 0 ABS 0
__Ltext68 0 0 ABS 0
__Ltext49 0 0 ABS 0
__ptext39 2594 0 CODE 0
__ptext58 341A 0 CODE 0
Timer3_reload@value 8 0 COMRAM 1
__Htext59 0 0 ABS 0
__Ltext59 0 0 ABS 0
__ptext49 3514 0 CODE 0
__ptext68 381A 0 CODE 0
_INTCONbits FF2 0 ABS 0
__Htext69 0 0 ABS 0
__Ltext69 0 0 ABS 0
__ptext59 3862 0 CODE 0
__ptext69 3092 0 CODE 0
Timer3_capture@time CD 0 BANK0 1
vListInitialise@pxList 8 0 COMRAM 1
__end_of_isupper 36B0 0 CODE 0
___aodiv@divisor 10 0 COMRAM 1
___lldiv@divisor C 0 COMRAM 1
___lodiv@divisor 10 0 COMRAM 1
__size_of___lldiv 0 0 ABS 0
___lwdiv@divisor A 0 COMRAM 1
vfpfcnvrt@fmt 62 0 BANK0 1
__size_of_Timer3_reload 0 0 ABS 0
__size_of_Timer3_enable 0 0 ABS 0
__CFG_CP0$OFF 0 0 ABS 0
USensor_init@counter A 0 COMRAM 1
__smallconst 800 0 SMALLCONST 0
Scheduler_createTask@timeout 14 0 COMRAM 1
__end_ofi1_Timer1_reload 3854 0 CODE 0
__CFG_FOSC$HSPLL_HS 0 0 ABS 0
__CFG_CP1$OFF 0 0 ABS 0
__size_of___wmul 0 0 ABS 0
__Hreset_vec 4 0 CODE 0
__end_of_toupper 341A 0 CODE 0
__Lreset_vec 0 0 CODE 0
_Timer1_reload 3840 0 CODE 0
__CFG_CP2$OFF 0 0 ABS 0
_Timer3_reload 3836 0 CODE 0
__CFG_CP3$OFF 0 0 ABS 0
__size_of_malloc 0 0 ABS 0
__size_of_vsnprintf 0 0 ABS 0
_Scheduler_wait 3100 0 CODE 0
__end_of_T1FREQ 805 0 SMALLCONST 0
__size_of_atoi 0 0 ABS 0
vfpfcnvrt@ap 64 0 BANK0 1
__end_of___lodiv 2B56 0 CODE 0
__accesstop 60 0 ABS 0
__Hintcode_body 0 0 ABS 0
__Lintcode_body 0 0 ABS 0
__pintcode_body 379C 0 CODE 0
__size_of_stoa 0 0 ABS 0
intlevel0 0 0 CODE 0
intlevel1 0 0 CODE 0
vfprintf@cfmt 87 0 BANK0 1
__CFG_WRTB$OFF 0 0 ABS 0
intlevel2 0 0 CODE 0
USensor_read@index A 0 COMRAM 1
intlevel3 0 0 CODE 0
__size_of_uxListInsertEnd 0 0 ABS 0
_Timer3_capture 37D6 0 CODE 0
__CFG_WRTC$OFF 0 0 ABS 0
__end_of_vfprintf 328A 0 CODE 0
vfpfcnvrt@cp 66 0 BANK0 1
__CFG_WRTD$OFF 0 0 ABS 0
__end_of_otoa 20C0 0 CODE 0
__size_of_Scheduler_suspend 0 0 ABS 0
__size_of_utoa 0 0 ABS 0
_uxListInsertEnd 28BA 0 CODE 0
_vsnprintf$2426 95 0 BANK0 1
_UART_ISR 3092 0 CODE 0
_vTaskEXEC_TASK 3758 0 CODE 0
vfpfcnvrt@ll 6E 0 BANK0 1
__CFG_CPB$OFF 0 0 ABS 0
Scheduler_check@ptskNode BD 0 BANK0 1
__end_of___wmul 3758 0 CODE 0
__CFG_CPD$OFF 0 0 ABS 0
start_initialization 316C 0 CODE 0
__end_of_isalpha 35BA 0 CODE 0
___aodiv@quotient 1A 0 COMRAM 1
___lldiv@quotient 10 0 COMRAM 1
___lodiv@quotient 18 0 COMRAM 1
_vfpfcnvrt$1725 6A 0 BANK0 1
___lwdiv@quotient C 0 COMRAM 1
__size_of_Scheduler_createTask 0 0 ABS 0
__end_of_stoa 2470 0 CODE 0
__size_of_uxListRemove 0 0 ABS 0
__size_of_Task0 0 0 ABS 0
__CFG_IESO$OFF 0 0 ABS 0
?_vfpfcnvrt 60 0 BANK0 1
__CFG_MCLRE$ON 0 0 ABS 0
vfpfcnvrt@fp 60 0 BANK0 1
__end_of_utoa 1DB6 0 CODE 0
__size_of_xtoa 0 0 ABS 0
__end_of_UART_Transmit 35EE 0 CODE 0
__end_of_vTaskSwitchContext 354E 0 CODE 0
vfpfcnvrt@llu 79 0 BANK0 1
__end_of_low_isr 3A 0 CODE 0
__initialization 316C 0 CODE 0
_isspace$2314 E 0 COMRAM 1
___aomod@dividend 8 0 COMRAM 1
__end_of_xtoa 1A26 0 CODE 0
__CFG_LPT1OSC$OFF 0 0 ABS 0
___lomod@dividend 8 0 COMRAM 1
__CFG_ICPRT$OFF 0 0 ABS 0
__activetblptr 2 0 ABS 0
___aomod@counter 18 0 COMRAM 1
___lomod@counter 18 0 COMRAM 1
___wmul@product C 0 COMRAM 1
__size_of_isspace 0 0 ABS 0
isspace@c 8 0 COMRAM 1
isalpha@c 8 0 COMRAM 1
__CFG_WDT$OFF 0 0 ABS 0
__size_of_Scheduler_wait 0 0 ABS 0
__size_of_Scheduler_init 0 0 ABS 0
__end_of_USensor_ISR 382A 0 CODE 0
__size_of_vfpfcnvrt 0 0 ABS 0
__CFG_LVP$OFF 0 0 ABS 0
__end_of_snprintf 3650 0 CODE 0
_HEAP_counter AB 0 BANK0 1
___aodiv@dividend 8 0 COMRAM 1
___lldiv@dividend 8 0 COMRAM 1
__size_of_Scheduler_sort 0 0 ABS 0
___lodiv@dividend 8 0 COMRAM 1
isdigit@c 8 0 COMRAM 1
__HbssBIGRAM_1 0 0 ABS 0
isupper@c 8 0 COMRAM 1
toupper@c E 0 COMRAM 1
__LbssBIGRAM_1 0 0 ABS 0
islower@c 8 0 COMRAM 1
%segments
reset_vec 0 3 CODE 0 0
intcode 8 D CODE 8 0
intcodelo 18 3D CODE 18 0
smallconst 800 83D SMALLCONST 800 0
config 300000 30000D CONFIG 300000 0
idloc 200000 200007 IDLOC 200000 0
cstackCOMRAM 1 57 COMRAM 1 1
cstackBANK0 60 FB BANK0 60 1
bssBANK1 100 14E BANK1 100 1
bssBIGRAM_1 400 7FF BIGRAM 400 1
text12 83E 3873 CODE 83E 0
%locals
dist/default/debug/UMultiSensor.X.debug.o
/opt/microchip/xc8/v2.05/pic/include/pic18f4550.h
/tmp/xcXjwaXfn
3305 316C 0 CODE 0
3307 316C 0 CODE 0
3310 316C 0 CODE 0
3431 316C 0 CODE 0
3432 316E 0 CODE 0
3433 3170 0 CODE 0
3434 3172 0 CODE 0
3435 3174 0 CODE 0
3436 3176 0 CODE 0
3437 3178 0 CODE 0
3438 317C 0 CODE 0
3439 3180 0 CODE 0
3440 3180 0 CODE 0
3441 3182 0 CODE 0
3442 3186 0 CODE 0
3443 3188 0 CODE 0
3444 318A 0 CODE 0
3448 318C 0 CODE 0
3449 3190 0 CODE 0
3450 3194 0 CODE 0
3451 3194 0 CODE 0
3452 3196 0 CODE 0
3453 3198 0 CODE 0
3454 319A 0 CODE 0
3455 319C 0 CODE 0
3456 319E 0 CODE 0
3459 31A0 0 CODE 0
3460 31A4 0 CODE 0
3461 31A6 0 CODE 0
3462 31A6 0 CODE 0
3463 31A8 0 CODE 0
3464 31AA 0 CODE 0
3467 31AC 0 CODE 0
3468 31B0 0 CODE 0
3469 31B2 0 CODE 0
3470 31B2 0 CODE 0
3471 31B4 0 CODE 0
3472 31B6 0 CODE 0
3475 31B8 0 CODE 0
3476 31BC 0 CODE 0
3477 31BE 0 CODE 0
3478 31BE 0 CODE 0
3479 31C0 0 CODE 0
3480 31C2 0 CODE 0
3486 31C4 0 CODE 0
3488 31C4 0 CODE 0
3489 31C6 0 CODE 0
3491 31C8 0 CODE 0
3492 31CA 0 CODE 0
3493 31CC 0 CODE 0
3494 31CE 0 CODE 0
main.c
23 2E9E 0 CODE 0
24 2E9E 0 CODE 0
25 2EA0 0 CODE 0
26 2EA2 0 CODE 0
28 2EA4 0 CODE 0
29 2EA8 0 CODE 0
31 2EC0 0 CODE 0
33 2EC4 0 CODE 0
34 2EC8 0 CODE 0
35 2EE4 0 CODE 0
36 2EEC 0 CODE 0
38 2EEE 0 CODE 0
39 2F08 0 CODE 0
40 2F10 0 CODE 0
43 2F12 0 CODE 0
44 2F16 0 CODE 0
46 2F1A 0 CODE 0
47 2F1E 0 CODE 0
48 2F22 0 CODE 0
Drivers/USensor.c
10 31D2 0 CODE 0
12 31D2 0 CODE 0
13 31DA 0 CODE 0
14 31DE 0 CODE 0
15 31E2 0 CODE 0
17 31E6 0 CODE 0
18 31EA 0 CODE 0
19 31F6 0 CODE 0
20 31FA 0 CODE 0
21 3212 0 CODE 0
22 322A 0 CODE 0
Drivers/Timer3.c
4 382A 0 CODE 0
6 382A 0 CODE 0
7 382C 0 CODE 0
8 3834 0 CODE 0
Drivers/UART.c
17 1DB6 0 CODE 0
21 1DB6 0 CODE 0
24 1DC2 0 CODE 0
26 1DC6 0 CODE 0
28 1DCA 0 CODE 0
34 1DCE 0 CODE 0
35 1DD2 0 CODE 0
36 1DD6 0 CODE 0
37 1DDA 0 CODE 0
39 1E12 0 CODE 0
41 1E4A 0 CODE 0
42 1E4A 0 CODE 0
43 1E4E 0 CODE 0
44 1E90 0 CODE 0
45 1E94 0 CODE 0
46 1E98 0 CODE 0
47 1E9A 0 CODE 0
52 1ED2 0 CODE 0
53 1ED2 0 CODE 0
54 1ED6 0 CODE 0
63 1F10 0 CODE 0
64 1F24 0 CODE 0
65 1F3A 0 CODE 0
66 1F3C 0 CODE 0
67 1F3E 0 CODE 0
68 1F40 0 CODE 0
/opt/microchip/xc8/v2.05/pic/sources/c99/common/__lldiv.c
7 2F26 0 CODE 0
13 2F26 0 CODE 0
14 2F36 0 CODE 0
15 2F42 0 CODE 0
16 2F46 0 CODE 0
17 2F48 0 CODE 0
18 2F52 0 CODE 0
16 2F54 0 CODE 0
21 2F58 0 CODE 0
22 2F62 0 CODE 0
23 2F76 0 CODE 0
24 2F86 0 CODE 0
26 2F88 0 CODE 0
27 2F92 0 CODE 0
28 2F96 0 CODE 0
29 2F96 0 CODE 0
30 2FA6 0 CODE 0
Drivers/UART.c
11 370A 0 CODE 0
12 370A 0 CODE 0
13 370E 0 CODE 0
14 3720 0 CODE 0
16 3730 0 CODE 0
main.c
60 380A 0 CODE 0
61 380A 0 CODE 0
62 3816 0 CODE 0
63 3818 0 CODE 0
System/Scheduler.c
74 3332 0 CODE 0
75 3332 0 CODE 0
76 333A 0 CODE 0
78 334A 0 CODE 0
79 3358 0 CODE 0
80 3368 0 CODE 0
83 3380 0 CODE 0
main.c
51 3024 0 CODE 0
53 3024 0 CODE 0
54 3030 0 CODE 0
55 3036 0 CODE 0
56 3046 0 CODE 0
57 306C 0 CODE 0
58 3090 0 CODE 0
/opt/microchip/xc8/v2.05/pic/sources/c99/common/snprintf.c
4 3620 0 CODE 0
8 3620 0 CODE 0
9 362A 0 CODE 0
12 364E 0 CODE 0
/opt/microchip/xc8/v2.05/pic/sources/c99/common/nf_vsnprintf.c
11 29B4 0 CODE 0
16 29B4 0 CODE 0
17 29BE 0 CODE 0
18 29C6 0 CODE 0
20 29CC 0 CODE 0
21 29D4 0 CODE 0
22 29E0 0 CODE 0
23 29EC 0 CODE 0
26 29F4 0 CODE 0
27 29FC 0 CODE 0
29 2A04 0 CODE 0
30 2A28 0 CODE 0
31 2A34 0 CODE 0
33 2A7E 0 CODE 0
34 2A86 0 CODE 0
/opt/microchip/xc8/v2.05/pic/sources/c99/common/doprnt.c
1368 3234 0 CODE 0
1373 3234 0 CODE 0
1374 323C 0 CODE 0
1375 3246 0 CODE 0
1376 3248 0 CODE 0
1375 326E 0 CODE 0
1378 3280 0 CODE 0
1382 3288 0 CODE 0
/opt/microchip/xc8/v2.05/pic/sources/c99/common/doprnt.c
670 83E 0 CODE 0
680 83E 0 CODE 0
681 85A 0 CODE 0
683 868 0 CODE 0
684 878 0 CODE 0
688 87C 0 CODE 0
692 886 0 CODE 0
693 888 0 CODE 0
694 896 0 CODE 0
696 898 0 CODE 0
700 89C 0 CODE 0
704 8A0 0 CODE 0
708 8A4 0 CODE 0
712 8A8 0 CODE 0
713 8B0 0 CODE 0
714 8B2 0 CODE 0
689 8F4 0 CODE 0
716 8FC 0 CODE 0
717 8FE 0 CODE 0
723 900 0 CODE 0
724 91A 0 CODE 0
725 928 0 CODE 0
726 950 0 CODE 0
727 954 0 CODE 0
728 956 0 CODE 0
731 960 0 CODE 0
732 97C 0 CODE 0
733 97E 0 CODE 0
732 98C 0 CODE 0
740 9D4 0 CODE 0
741 9EE 0 CODE 0
742 9F6 0 CODE 0
743 A04 0 CODE 0
744 A1E 0 CODE 0
745 A2C 0 CODE 0
746 A54 0 CODE 0
747 A56 0 CODE 0
748 A72 0 CODE 0
749 A74 0 CODE 0
748 A82 0 CODE 0
792 ACA 0 CODE 0
793 AE4 0 CODE 0
794 AF2 0 CODE 0
795 B16 0 CODE 0
802 B30 0 CODE 0
805 B88 0 CODE 0
806 B98 0 CODE 0
808 BD2 0 CODE 0
814 C08 0 CODE 0
817 C60 0 CODE 0
825 C6E 0 CODE 0
827 CA2 0 CODE 0
828 CB0 0 CODE 0
883 CE2 0 CODE 0
886 D3A 0 CODE 0
887 D4A 0 CODE 0
969 D8A 0 CODE 0
971 DB6 0 CODE 0
972 DC6 0 CODE 0
974 DFE 0 CODE 0
980 E34 0 CODE 0
982 E5E 0 CODE 0
990 E60 0 CODE 0
992 E7A 0 CODE 0
1044 E86 0 CODE 0
1046 EB2 0 CODE 0
1047 EC2 0 CODE 0
1058 EF6 0 CODE 0
1060 F22 0 CODE 0
1061 F32 0 CODE 0
1062 F5A 0 CODE 0
1063 F66 0 CODE 0
1068 F72 0 CODE 0
1070 F9E 0 CODE 0
1072 FA0 0 CODE 0
1077 FB2 0 CODE 0
1078 FCC 0 CODE 0
1125 FD8 0 CODE 0
1127 1004 0 CODE 0
1128 1014 0 CODE 0
1129 103C 0 CODE 0
1138 103E 0 CODE 0
1140 1058 0 CODE 0
1141 1066 0 CODE 0
1143 10A4 0 CODE 0
1149 10DE 0 CODE 0
1151 10F8 0 CODE 0
1152 1106 0 CODE 0
1154 112E 0 CODE 0
1161 114C 0 CODE 0
1163 1178 0 CODE 0
1164 1188 0 CODE 0
1166 11C0 0 CODE 0
1172 11F6 0 CODE 0
1174 1220 0 CODE 0
1182 1222 0 CODE 0
1184 123C 0 CODE 0
1236 1248 0 CODE 0
1238 1274 0 CODE 0
1239 1284 0 CODE 0
1249 12B8 0 CODE 0
1252 1310 0 CODE 0
1253 1336 0 CODE 0
1254 1346 0 CODE 0
1256 137E 0 CODE 0
1262 13B8 0 CODE 0
1267 1412 0 CODE 0
1274 1446 0 CODE 0
1276 147A 0 CODE 0
1277 1490 0 CODE 0
1337 149C 0 CODE 0
1340 14F4 0 CODE 0
1341 151A 0 CODE 0
1342 152A 0 CODE 0
1350 152C 0 CODE 0
1351 1546 0 CODE 0
1352 1554 0 CODE 0
1353 1568 0 CODE 0
1357 1574 0 CODE 0
1362 1584 0 CODE 0
1363 15A8 0 CODE 0
/opt/microchip/xc8/v2.05/pic/sources/c99/common/doprnt.c
623 17FA 0 CODE 0
629 17FA 0 CODE 0
630 17FC 0 CODE 0
632 17FE 0 CODE 0
633 181E 0 CODE 0
634 1826 0 CODE 0
635 182A 0 CODE 0
639 1832 0 CODE 0
640 1852 0 CODE 0
641 185A 0 CODE 0
642 1860 0 CODE 0
643 1862 0 CODE 0
644 1868 0 CODE 0
645 1870 0 CODE 0
646 1890 0 CODE 0
647 18FE 0 CODE 0
649 1912 0 CODE 0
650 1922 0 CODE 0
651 1928 0 CODE 0
652 192E 0 CODE 0
642 1988 0 CODE 0
656 19CC 0 CODE 0
657 19D0 0 CODE 0
658 19D6 0 CODE 0
659 19E6 0 CODE 0
660 19EC 0 CODE 0
664 19FC 0 CODE 0
665 1A24 0 CODE 0
/opt/microchip/xc8/v2.05/pic/sources/c99/common/toupper.c
4 33D0 0 CODE 0
6 33D0 0 CODE 0
7 3410 0 CODE 0
8 3418 0 CODE 0
/opt/microchip/xc8/v2.05/pic/sources/c99/common/islower.c
5 3650 0 CODE 0
7 3650 0 CODE 0
8 367E 0 CODE 0
/opt/microchip/xc8/v2.05/pic/sources/c99/common/isupper.c
5 3680 0 CODE 0
7 3680 0 CODE 0
8 36AE 0 CODE 0
/opt/microchip/xc8/v2.05/pic/sources/c99/common/isalpha.c
5 3586 0 CODE 0
7 3586 0 CODE 0
8 35B8 0 CODE 0
/opt/microchip/xc8/v2.05/pic/sources/c99/common/doprnt.c
593 1C08 0 CODE 0
599 1C08 0 CODE 0
600 1C0A 0 CODE 0
602 1C0C 0 CODE 0
603 1C2C 0 CODE 0
606 1C34 0 CODE 0
607 1C54 0 CODE 0
608 1C5C 0 CODE 0
609 1C62 0 CODE 0
610 1C64 0 CODE 0
611 1C6A 0 CODE 0
612 1CE0 0 CODE 0
613 1CE6 0 CODE 0
614 1CEC 0 CODE 0
609 1D50 0 CODE 0
618 1D8C 0 CODE 0
619 1DB4 0 CODE 0
/opt/microchip/xc8/v2.05/pic/sources/c99/common/lomod.c
9 2C10 0 CODE 0
14 2C10 0 CODE 0
15 2C24 0 CODE 0
16 2C28 0 CODE 0
17 2C2A 0 CODE 0
18 2C3C 0 CODE 0
16 2C3E 0 CODE 0
21 2C42 0 CODE 0
22 2C66 0 CODE 0
23 2C86 0 CODE 0
24 2C98 0 CODE 0
25 2C9C 0 CODE 0
26 2C9C 0 CODE 0
27 2CBC 0 CODE 0
/opt/microchip/xc8/v2.05/pic/sources/c99/common/lodiv.c
9 2A88 0 CODE 0
15 2A88 0 CODE 0
16 2A94 0 CODE 0
17 2AA8 0 CODE 0
18 2AAC 0 CODE 0
19 2AAE 0 CODE 0
20 2AC0 0 CODE 0
18 2AC2 0 CODE 0
23 2AC6 0 CODE 0
24 2AD8 0 CODE 0
25 2AFC 0 CODE 0
26 2B1C 0 CODE 0
28 2B1E 0 CODE 0
29 2B30 0 CODE 0
30 2B34 0 CODE 0
31 2B34 0 CODE 0
32 2B54 0 CODE 0
/opt/microchip/xc8/v2.05/pic/sources/c99/common/strncmp.c
3 2CBE 0 CODE 0
5 2CBE 0 CODE 0
6 2CCE 0 CODE 0
7 2CE8 0 CODE 0
8 2D42 0 CODE 0
9 2D66 0 CODE 0
/opt/microchip/xc8/v2.05/pic/sources/c99/common/doprnt.c
546 2348 0 CODE 0
548 2348 0 CODE 0
552 235A 0 CODE 0
553 2362 0 CODE 0
554 236A 0 CODE 0
558 2372 0 CODE 0
559 2386 0 CODE 0
560 238E 0 CODE 0
561 23AE 0 CODE 0
562 23B6 0 CODE 0
565 23BE 0 CODE 0
567 23C4 0 CODE 0
568 23D8 0 CODE 0
566 23DC 0 CODE 0
573 23F0 0 CODE 0
574 23F8 0 CODE 0
575 23FA 0 CODE 0
576 2418 0 CODE 0
577 241C 0 CODE 0
574 2420 0 CODE 0
581 2434 0 CODE 0
583 243A 0 CODE 0
584 244E 0 CODE 0
582 2452 0 CODE 0
588 2466 0 CODE 0
589 246E 0 CODE 0
/opt/microchip/xc8/v2.05/pic/sources/c99/common/doprnt.c
507 1F42 0 CODE 0
513 1F42 0 CODE 0
514 1F44 0 CODE 0
516 1F46 0 CODE 0
517 1F66 0 CODE 0
520 1F6E 0 CODE 0
521 1F8E 0 CODE 0
522 1F96 0 CODE 0
523 1F9C 0 CODE 0
524 1FA4 0 CODE 0
525 1FA6 0 CODE 0
526 1FAC 0 CODE 0
527 1FB4 0 CODE 0
528 1FC6 0 CODE 0
529 1FCC 0 CODE 0
530 1FD2 0 CODE 0
524 202C 0 CODE 0
534 206E 0 CODE 0
535 207A 0 CODE 0
536 2080 0 CODE 0
537 2090 0 CODE 0
541 2096 0 CODE 0
542 20BE 0 CODE 0
/opt/microchip/xc8/v2.05/pic/sources/c99/common/doprnt.c
274 15B8 0 CODE 0
280 15B8 0 CODE 0
281 15D8 0 CODE 0
282 15E6 0 CODE 0
283 15EE 0 CODE 0
287 160E 0 CODE 0
288 1610 0 CODE 0
290 1612 0 CODE 0
291 1632 0 CODE 0
292 163A 0 CODE 0
293 1646 0 CODE 0
297 164C 0 CODE 0
298 1654 0 CODE 0
299 165A 0 CODE 0
300 165C 0 CODE 0
301 1662 0 CODE 0
302 16E4 0 CODE 0
303 16EA 0 CODE 0
304 16F0 0 CODE 0
299 1754 0 CODE 0
308 1796 0 CODE 0
309 17A2 0 CODE 0
310 17A8 0 CODE 0
314 17D0 0 CODE 0
315 17F8 0 CODE 0
/opt/microchip/xc8/v2.05/pic/sources/c99/common/abs.c
1 35EE 0 CODE 0
3 35EE 0 CODE 0
4 361E 0 CODE 0
/opt/microchip/xc8/v2.05/pic/sources/c99/common/aomod.c
9 2470 0 CODE 0
14 2470 0 CODE 0
15 2474 0 CODE 0
16 2478 0 CODE 0
17 2498 0 CODE 0
19 249C 0 CODE 0
20 24A0 0 CODE 0
21 24C0 0 CODE 0
22 24D4 0 CODE 0
23 24D8 0 CODE 0
24 24DA 0 CODE 0
25 24EC 0 CODE 0
23 24EE 0 CODE 0
28 24F2 0 CODE 0
29 2516 0 CODE 0
30 2536 0 CODE 0
31 2548 0 CODE 0
33 254C 0 CODE 0
34 2552 0 CODE 0
35 2572 0 CODE 0
36 2592 0 CODE 0
/opt/microchip/xc8/v2.05/pic/sources/c99/common/aodiv.c
9 20C0 0 CODE 0
15 20C0 0 CODE 0
16 20C4 0 CODE 0
17 20C8 0 CODE 0
18 20E8 0 CODE 0
20 20EC 0 CODE 0
21 20F0 0 CODE 0
22 2110 0 CODE 0
24 2114 0 CODE 0
25 2120 0 CODE 0
26 2134 0 CODE 0
27 2138 0 CODE 0
28 213A 0 CODE 0
29 214C 0 CODE 0
27 214E 0 CODE 0
32 2152 0 CODE 0
33 2164 0 CODE 0
34 2188 0 CODE 0
35 21A8 0 CODE 0
37 21AA 0 CODE 0
38 21BC 0 CODE 0
40 21C0 0 CODE 0
41 21C6 0 CODE 0
42 21E6 0 CODE 0
43 2206 0 CODE 0
/opt/microchip/xc8/v2.05/pic/sources/c99/common/doprnt.c
259 3382 0 CODE 0
264 3382 0 CODE 0
267 33A0 0 CODE 0
268 33A4 0 CODE 0
269 33AA 0 CODE 0
270 33CE 0 CODE 0
/opt/microchip/xc8/v2.05/pic/sources/c99/common/doprnt.c
72 2E08 0 CODE 0
77 2E08 0 CODE 0
78 2E0C 0 CODE 0
82 2E20 0 CODE 0
83 2E36 0 CODE 0
84 2E3E 0 CODE 0
85 2E40 0 CODE 0
86 2E54 0 CODE 0
84 2E58 0 CODE 0
90 2E6C 0 CODE 0
91 2E70 0 CODE 0
94 2E84 0 CODE 0
95 2E9C 0 CODE 0
/opt/microchip/xc8/v2.05/pic/sources/c99/common/strlen.c
12 36E0 0 CODE 0
14 36E0 0 CODE 0
16 36E8 0 CODE 0
17 36EA 0 CODE 0
16 36EE 0 CODE 0
25 36FC 0 CODE 0
26 3708 0 CODE 0
/opt/microchip/xc8/v2.05/pic/sources/c99/common/nf_fputs.c
8 354E 0 CODE 0
13 354E 0 CODE 0
14 3556 0 CODE 0
15 3558 0 CODE 0
16 356A 0 CODE 0
14 356E 0 CODE 0
/opt/microchip/xc8/v2.05/pic/sources/c99/common/nf_fputc.c
8 2D68 0 CODE 0
12 2D68 0 CODE 0
13 2D78 0 CODE 0
14 2D7E 0 CODE 0
15 2D80 0 CODE 0
16 2DC0 0 CODE 0
17 2DF4 0 CODE 0
21 2E06 0 CODE 0
/opt/microchip/xc8/v2.05/pic/sources/c99/common/putch.c
7 3870 0 CODE 0
9 3870 0 CODE 0
/opt/microchip/xc8/v2.05/pic/sources/c99/common/atoi.c
4 2208 0 CODE 0
6 2208 0 CODE 0
7 2218 0 CODE 0
9 2274 0 CODE 0
10 227C 0 CODE 0
11 2280 0 CODE 0
14 22AA 0 CODE 0
13 22DE 0 CODE 0
15 231C 0 CODE 0
16 2346 0 CODE 0
/opt/microchip/xc8/v2.05/pic/sources/c99/common/isspace.c
5 349C 0 CODE 0
7 349C 0 CODE 0
8 34D8 0 CODE 0
/opt/microchip/xc8/v2.05/pic/sources/c99/common/isdigit.c
5 36B0 0 CODE 0
7 36B0 0 CODE 0
8 36DE 0 CODE 0
/opt/microchip/xc8/v2.05/pic/sources/c99/common/Umul16.c
15 3732 0 CODE 0
37 3732 0 CODE 0
38 373E 0 CODE 0
39 3746 0 CODE 0
52 374E 0 CODE 0
53 3756 0 CODE 0
Drivers/USensor.c
54 34DA 0 CODE 0
55 34DA 0 CODE 0
56 34E2 0 CODE 0
57 34EA 0 CODE 0
59 3512 0 CODE 0
Drivers/USensor.c
25 2594 0 CODE 0
28 2596 0 CODE 0
29 259A 0 CODE 0
30 25A6 0 CODE 0
32 25AC 0 CODE 0
33 25B4 0 CODE 0
35 25BA 0 CODE 0
36 25BC 0 CODE 0
37 25C2 0 CODE 0
38 25C4 0 CODE 0
39 25C8 0 CODE 0
40 25D6 0 CODE 0
41 25F6 0 CODE 0
42 2602 0 CODE 0
43 2616 0 CODE 0
44 261A 0 CODE 0
45 2622 0 CODE 0
46 2634 0 CODE 0
47 264C 0 CODE 0
48 2678 0 CODE 0
49 267A 0 CODE 0
50 2692 0 CODE 0
52 26AA 0 CODE 0
/opt/microchip/xc8/v2.05/pic/sources/c99/common/lwdiv.c
7 32E0 0 CODE 0
13 32E0 0 CODE 0
14 32E8 0 CODE 0
15 32F0 0 CODE 0
16 32F4 0 CODE 0
17 32F6 0 CODE 0
18 32FC 0 CODE 0
16 32FE 0 CODE 0
21 3302 0 CODE 0
22 3308 0 CODE 0
23 3314 0 CODE 0
24 331C 0 CODE 0
26 331E 0 CODE 0
27 3324 0 CODE 0
28 3328 0 CODE 0
29 3328 0 CODE 0
30 3330 0 CODE 0
Drivers/Timer3.c
20 385C 0 CODE 0
21 385C 0 CODE 0
22 385E 0 CODE 0
23 3860 0 CODE 0
Drivers/Timer3.c
17 3868 0 CODE 0
18 3868 0 CODE 0
19 386A 0 CODE 0
Drivers/Timer3.c
24 3836 0 CODE 0
25 3836 0 CODE 0
26 383A 0 CODE 0
27 383E 0 CODE 0
Drivers/Timer3.c
9 37BA 0 CODE 0
10 37BC 0 CODE 0
11 37BE 0 CODE 0
12 37D2 0 CODE 0
13 37D4 0 CODE 0
Drivers/Timer3.c
28 37D6 0 CODE 0
30 37D6 0 CODE 0
31 37DA 0 CODE 0
34 37E2 0 CODE 0
35 37E6 0 CODE 0
36 37EE 0 CODE 0
Drivers/UART.c
70 35BA 0 CODE 0
71 35BA 0 CODE 0
72 35CA 0 CODE 0
73 35D4 0 CODE 0
85 35D8 0 CODE 0
86 35E0 0 CODE 0
87 35E8 0 CODE 0
88 35EA 0 CODE 0
90 35EC 0 CODE 0
System/Scheduler.c
58 3100 0 CODE 0
60 3100 0 CODE 0
61 3108 0 CODE 0
62 3110 0 CODE 0
64 3122 0 CODE 0
65 3122 0 CODE 0
66 3126 0 CODE 0
67 312E 0 CODE 0
69 3132 0 CODE 0
70 3146 0 CODE 0
71 315A 0 CODE 0
73 316A 0 CODE 0
System/Scheduler.c
191 27BA 0 CODE 0
193 27BA 0 CODE 0
194 27C6 0 CODE 0
195 27CC 0 CODE 0
197 27D0 0 CODE 0
200 27D4 0 CODE 0
201 27D6 0 CODE 0
202 27DC 0 CODE 0
204 27E0 0 CODE 0
206 27E4 0 CODE 0
207 27EC 0 CODE 0
208 27FC 0 CODE 0
212 2800 0 CODE 0
213 2814 0 CODE 0
219 282E 0 CODE 0
220 2842 0 CODE 0
223 285A 0 CODE 0
225 285C 0 CODE 0
226 286E 0 CODE 0
229 2886 0 CODE 0
232 2888 0 CODE 0
233 2898 0 CODE 0
200 28B0 0 CODE 0
System/Scheduler.c
126 3514 0 CODE 0
127 3514 0 CODE 0
129 351E 0 CODE 0
131 3532 0 CODE 0
135 3544 0 CODE 0
136 354C 0 CODE 0
System/Scheduler.c
138 3758 0 CODE 0
140 3758 0 CODE 0
141 375C 0 CODE 0
142 375E 0 CODE 0
143 376E 0 CODE 0
144 3770 0 CODE 0
145 3772 0 CODE 0
146 3774 0 CODE 0
147 3776 0 CODE 0
148 3778 0 CODE 0
152 377C 0 CODE 0
Drivers/Timer1.c
18 386C 0 CODE 0
19 386C 0 CODE 0
20 386E 0 CODE 0
Drivers/Timer1.c
24 3840 0 CODE 0
25 3840 0 CODE 0
26 3848 0 CODE 0
Drivers/Timer1.c
10 37F0 0 CODE 0
11 37F2 0 CODE 0
12 37F4 0 CODE 0
13 3806 0 CODE 0
14 3808 0 CODE 0
System/Scheduler.c
24 3872 0 CODE 0
29 3872 0 CODE 0
System/Scheduler.c
154 2B56 0 CODE 0
160 2B56 0 CODE 0
161 2B5A 0 CODE 0
162 2B62 0 CODE 0
163 2B66 0 CODE 0
164 2B6E 0 CODE 0
165 2B76 0 CODE 0
167 2B78 0 CODE 0
169 2B8C 0 CODE 0
175 2BA0 0 CODE 0
176 2BC0 0 CODE 0
178 2BD8 0 CODE 0
180 2BE4 0 CODE 0
186 2BF8 0 CODE 0
165 2C00 0 CODE 0
188 2C0A 0 CODE 0
189 2C0E 0 CODE 0
System/list.c
113 1A26 0 CODE 0
116 1A26 0 CODE 0
118 1A2E 0 CODE 0
121 1A42 0 CODE 0
123 1A66 0 CODE 0
124 1A8A 0 CODE 0
127 1A9C 0 CODE 0
129 1AAC 0 CODE 0
131 1ADC 0 CODE 0
132 1B00 0 CODE 0
134 1B02 0 CODE 0
136 1B16 0 CODE 0
138 1B3E 0 CODE 0
139 1B5A 0 CODE 0
143 1B5C 0 CODE 0
145 1B84 0 CODE 0
148 1BB0 0 CODE 0
151 1BCE 0 CODE 0
152 1BDE 0 CODE 0
153 1BF2 0 CODE 0
156 1C06 0 CODE 0
System/Scheduler.c
116 345C 0 CODE 0
117 345C 0 CODE 0
118 3468 0 CODE 0
119 3474 0 CODE 0
120 3480 0 CODE 0
121 348C 0 CODE 0
122 3490 0 CODE 0
123 349A 0 CODE 0
System/list.c
10 341A 0 CODE 0
11 341A 0 CODE 0
12 3422 0 CODE 0
13 3446 0 CODE 0
15 345A 0 CODE 0
Drivers/Timer1.c
6 3862 0 CODE 0
8 3862 0 CODE 0
9 3866 0 CODE 0
System/Scheduler.c
31 26AC 0 CODE 0
39 26AC 0 CODE 0
40 26C8 0 CODE 0
41 26DA 0 CODE 0
42 26EA 0 CODE 0
43 26FA 0 CODE 0
44 270E 0 CODE 0
45 2718 0 CODE 0
46 2728 0 CODE 0
47 2740 0 CODE 0
48 2742 0 CODE 0
49 274A 0 CODE 0
50 275E 0 CODE 0
51 276E 0 CODE 0
52 2786 0 CODE 0
53 2788 0 CODE 0
54 2798 0 CODE 0
56 27B0 0 CODE 0
57 27B8 0 CODE 0
System/list.c
23 328A 0 CODE 0
24 328A 0 CODE 0
25 3292 0 CODE 0
26 32A6 0 CODE 0
27 32B6 0 CODE 0
28 32CA 0 CODE 0
29 32DE 0 CODE 0
System/list.c
75 28BA 0 CODE 0
76 28BA 0 CODE 0
77 28C2 0 CODE 0
78 28CA 0 CODE 0
80 28DE 0 CODE 0
82 28F2 0 CODE 0
84 290E 0 CODE 0
86 292E 0 CODE 0
94 2944 0 CODE 0
95 2954 0 CODE 0
96 2968 0 CODE 0
97 298C 0 CODE 0
100 299E 0 CODE 0
103 29B2 0 CODE 0
System/mem.c
7 2FA8 0 CODE 0
8 2FA8 0 CODE 0
9 2FAC 0 CODE 0
11 2FB4 0 CODE 0
12 2FE8 0 CODE 0
13 2FF4 0 CODE 0
14 3004 0 CODE 0
16 3006 0 CODE 0
17 3016 0 CODE 0
18 3016 0 CODE 0
20 301A 0 CODE 0
21 3022 0 CODE 0
System/mem.c
21 18 0 CODE 0
main.c
70 18 0 CODE 0
71 26 0 CODE 0
72 2A 0 CODE 0
System/Scheduler.c
246 377E 0 CODE 0
247 377E 0 CODE 0
248 3782 0 CODE 0
249 378E 0 CODE 0
250 3790 0 CODE 0
251 3796 0 CODE 0
253 379A 0 CODE 0
Drivers/Timer1.c
24 384A 0 CODE 0
25 384A 0 CODE 0
26 3852 0 CODE 0
Drivers/Timer1.c
26 8 0 CODE 0
main.c
65 8 0 CODE 0
main.c
65 379C 0 CODE 0
66 37A6 0 CODE 0
67 37AA 0 CODE 0
68 37AE 0 CODE 0
Drivers/USensor.c
61 381A 0 CODE 0
62 381A 0 CODE 0
65 381E 0 CODE 0
66 3820 0 CODE 0
67 3822 0 CODE 0
69 3828 0 CODE 0
Drivers/UART.c
128 3092 0 CODE 0
129 3092 0 CODE 0
130 3094 0 CODE 0
131 3098 0 CODE 0
132 30A4 0 CODE 0
133 30B2 0 CODE 0
134 30B8 0 CODE 0
135 30C0 0 CODE 0
136 30C4 0 CODE 0
140 30C6 0 CODE 0
141 30CA 0 CODE 0
142 30CE 0 CODE 0
143 30D6 0 CODE 0
144 30DE 0 CODE 0
145 30EA 0 CODE 0
146 30F6 0 CODE 0
147 30F8 0 CODE 0
148 30FC 0 CODE 0
152 30FE 0 CODE 0
